com\phone\entity\AccountBalance.class
com\phone\entity\MobileMoneyAccount.class
com\phone\controllers\MobileMoneyController.class
com\phone\entity\PhoneNumber.class
com\phone\utils\Meta.class
com\phone\entity\Operator.class
com\phone\PhoneServiceApplication.class
com\phone\utils\Helper.class
com\phone\entity\Account.class
com\phone\entity\AccountOffer.class
com\phone\entity\TransactionStatus.class
com\phone\controllers\AccountController.class
com\phone\controllers\InformationsController.class
com\phone\utils\ResponseBuilder.class
com\phone\utils\Main.class
com\phone\controllers\OfferController.class
com\phone\entity\TransactionType.class
com\phone\entity\Informations.class
com\phone\utils\DBUtils.class
com\phone\utils\Response.class
com\phone\controllers\OperatorController.class
com\phone\entity\Offer.class
com\phone\entity\MobileMoneyTransaction.class
